<svg width="58" height="58" viewBox="0 0 58 58" fill="none" xmlns="http://www.w3.org/2000/svg">
  <mask id="mask0_86_177" style="mask-type:luminance" maskUnits="userSpaceOnUse" x="0" y="0" width="58" height="58">
    <path d="M28.9914 -1.34999e-05L0 28.9914L28.9914 57.9827L57.9828 28.9914L28.9914 -1.34999e-05Z" fill="white"/>
  </mask>
  <g mask="url(#mask0_86_177)">
    <path d="M42.9674 18.6113C45.6575 21.4963 47.2648 25.2629 47.5556 29.3634C47.8464 33.464 46.8055 37.685 44.5843 41.4129C42.3631 45.1408 39.0773 48.1813 35.2045 50.0926C31.3316 52.0038 27.0736 52.6862 23.0492 52.0406L23.0493 52.0322L23.0594 52.0056C23.0639 52.001 23.0598 51.9968 23.0644 51.9922C23.0607 51.9794 23.0653 51.9748 23.0657 51.966L24.9634 44.6114L33.0147 13.3758L33.0189 13.38C33.135 13.3958 33.2465 13.4163 33.3625 13.4405C33.6249 13.4833 33.8837 13.5409 34.1439 13.6006C34.3884 13.6531 34.6284 13.7101 34.8672 13.7753C35.2227 13.8653 35.5773 13.9727 35.9181 14.0947C36.0762 14.1426 36.2302 14.1958 36.3801 14.2544C36.6058 14.334 36.8182 14.4187 37.0389 14.5116C37.201 14.5726 37.3573 14.647 37.5143 14.7214C37.6392 14.7698 37.7555 14.8256 37.8788 14.8847C38.3529 15.1124 38.8177 15.3576 39.2721 15.6292C40.6464 16.4429 41.8888 17.4455 42.9674 18.6113Z" fill="url(#paint0_linear_86_177)"/>
    <g style="mix-blend-mode:multiply" opacity="0.16">
      <path d="M39.2721 15.6292L23.0492 52.0406L33.0154 13.3765C35.2566 13.7354 37.3751 14.4981 39.2721 15.6292Z" fill="black"/>
    </g>
    <path d="M34.9352 5.94338L34.9347 5.95215C34.9301 5.95674 34.9338 5.96959 34.925 5.97839C34.9271 5.99153 34.9248 6.00537 34.9186 6.01792L33.0213 13.379L24.9655 44.6109C24.8463 44.5919 24.7334 44.5708 24.6167 44.5452C19.739 43.6817 15.5872 40.9051 13.044 36.806C12.7077 36.265 12.4006 35.7046 12.1239 35.1268C12.1207 35.1165 12.1169 35.1065 12.1124 35.0969C12.0965 35.0731 12.0832 35.0475 12.0727 35.0205C10.5863 31.859 10.0608 28.2522 10.5555 24.6073C11.0502 20.9624 12.5453 17.4247 14.8722 14.3938C17.199 11.3629 20.2647 8.95955 23.723 7.4552C27.1814 5.95089 30.8945 5.40551 34.4432 5.88067C34.4562 5.88084 34.4692 5.88178 34.4819 5.88341C34.634 5.89778 34.7853 5.91982 34.9352 5.94338Z" fill="url(#paint1_linear_86_177)"/>
    <g style="mix-blend-mode:multiply" opacity="0.25">
      <path d="M33.363 13.4413C32.8946 15.5606 32.3266 18.0005 31.6949 20.6146C31.3651 21.9681 31.0384 23.3676 30.6754 24.7874C30.3124 26.2073 29.9516 27.6484 29.5881 29.0853C29.2106 30.5273 28.8292 31.9655 28.4564 33.3862C28.0764 34.7982 27.6972 36.1927 27.3333 37.5382C26.5925 40.2352 25.8827 42.7444 25.2439 44.8938C24.6223 47.042 24.0508 48.8272 23.6731 50.0793C23.3353 51.1769 23.1096 51.8564 23.0584 52.0065C23.0562 51.9934 23.0584 51.9795 23.0648 51.9669L33.0145 13.3774C33.1313 13.3925 33.247 13.4171 33.363 13.4413Z" fill="black"/>
    </g>
    <g style="mix-blend-mode:screen" opacity="0.7">
      <path d="M34.9246 5.97859C34.9267 5.99166 34.9244 6.0055 34.9183 6.01809L24.9651 44.6111C24.8459 44.5921 24.733 44.571 24.6164 44.5454C25.0889 42.4302 25.6573 39.9816 26.2886 37.3679C26.6184 36.0143 26.9584 34.6182 27.3085 33.1947C27.6672 31.7798 28.0319 30.3341 28.3958 28.8968C28.7733 27.4548 29.1547 26.0166 29.5275 24.5959C29.9004 23.1752 30.287 21.7897 30.6506 20.4439C31.3868 17.7515 32.1012 15.2377 32.7354 13.0845C33.3575 10.9359 33.9328 9.15529 34.3108 7.90278C34.6477 6.8081 34.8734 6.1286 34.9246 5.97859Z" fill="white"/>
    </g>
    <g style="mix-blend-mode:screen" opacity="0.25">
      <path d="M40.6939 19.9764C41.4988 20.775 42.2066 21.6666 42.8051 22.6362C43.9413 24.4491 44.6834 26.5064 44.9887 28.69C45.2942 30.8736 45.1569 33.1405 44.5847 35.3607C44.0126 37.5809 43.0169 39.7105 41.6548 41.6274C40.2927 43.5442 38.591 45.2107 36.6474 46.5309C33.4675 48.7158 29.7634 49.8694 26.0992 49.8159L26.1535 49.6048L40.6939 19.9764Z" fill="white"/>
    </g>
    <g style="mix-blend-mode:screen" opacity="0.25">
      <path d="M31.8847 8.16831L31.7768 8.58151L15.2905 35.5416C15.2503 35.483 15.2049 35.42 15.1696 35.3572C14.0343 33.5429 13.2931 31.4844 12.9887 29.2998C12.6842 27.1153 12.8224 24.8476 13.3953 22.6268C13.9682 20.406 14.9646 18.2759 16.3273 16.3585C17.69 14.4411 19.3923 12.7742 21.3364 11.4533C24.5175 9.27123 28.2206 8.11798 31.8847 8.16831Z" fill="white"/>
    </g>
    <g style="mix-blend-mode:multiply" opacity="0.16">
      <path d="M42.9674 18.6113C45.6576 21.4964 47.2648 25.2629 47.5556 29.3634C47.8464 33.464 46.8055 37.685 44.5843 41.4129C42.3631 45.1408 39.0773 48.1813 35.2045 50.0926C31.3317 52.0039 27.0736 52.6862 23.0492 52.0406C24.0614 52.128 25.0843 52.1525 26.1123 52.1142C28.1478 52.0066 30.187 51.5999 32.1643 50.9071C34.1231 50.2216 35.9946 49.2465 37.7124 48.0163L38.959 47.0501C39.387 46.7382 39.7453 46.3467 40.1402 46.0009L40.7187 45.4638L41.252 44.8815C41.6145 44.5039 41.9575 44.1084 42.2793 43.6967L43.2284 42.4422L44.06 41.1161C44.3567 40.6813 44.5579 40.1969 44.8097 39.7447C45.057 39.2866 45.2726 38.8146 45.4547 38.3323C45.8538 37.3784 46.1828 36.4028 46.4388 35.4141L46.7709 33.9181C46.8486 33.4197 46.9047 32.9181 46.9693 32.4156C47.0269 31.9131 47.0584 31.4105 47.0636 30.91L47.0939 30.1538L47.0493 29.4144C47.0008 28.4157 46.8815 27.429 46.6924 26.4613L46.3229 25.0313C46.2134 24.5468 46.0013 24.1151 45.8472 23.6503C45.7634 23.4205 45.6893 23.1865 45.5964 22.9603L45.2702 22.296C45.0452 21.8606 44.8525 21.3847 44.6041 20.981C44.1122 20.1526 43.5656 19.3611 42.9674 18.6113Z" fill="black"/>
    </g>
    <g style="mix-blend-mode:screen" opacity="0.7">
      <path d="M34.4421 5.88288C34.3628 5.88003 34.2425 5.87529 34.083 5.8711C33.7718 5.8438 33.3001 5.85339 32.7093 5.84184C31.0809 5.87188 29.4421 6.09246 27.8261 6.4991C26.7567 6.76303 25.7018 7.11136 24.6715 7.54066C23.5333 8.02277 22.4286 8.5972 21.3692 9.25773C21.096 9.4238 20.8082 9.62946 20.5251 9.8131C20.2652 9.98249 20.0019 10.2127 19.7377 10.403C19.4711 10.6115 19.2087 10.8159 18.9383 11.0207C18.6713 11.238 18.4295 11.4714 18.1704 11.6974C17.9199 11.9313 17.6574 12.1531 17.409 12.3897L16.6978 13.15C16.2201 13.6526 15.7729 14.1827 15.3588 14.7369C15.1384 15.0029 14.9342 15.2813 14.7477 15.5705L14.1635 16.4309C13.7997 17.0089 13.4825 17.6238 13.1486 18.2133C12.8778 18.8294 12.5616 19.4275 12.3265 20.0425C12.211 20.3479 12.0994 20.6571 11.9843 20.9621L11.8131 21.4221L11.6859 21.8795C11.5244 22.4954 11.3245 23.0912 11.2243 23.695C10.9855 24.8343 10.8456 25.9822 10.8061 27.1255C10.7726 27.6475 10.7707 28.1678 10.8001 28.6835C10.831 29.1804 10.8631 29.6601 10.8927 30.1106C10.9615 30.5619 11.0218 30.9803 11.0792 31.3851C11.2039 32.177 11.4169 32.8384 11.5409 33.41C11.869 34.3694 12.0731 34.966 12.1138 35.0986C12.1184 35.1082 12.1222 35.1182 12.1254 35.1285C12.1254 35.1285 12.1056 35.0903 12.0742 35.0222C10.5878 31.8607 10.0623 28.2539 10.557 24.609C11.0517 20.9641 12.5468 17.4264 14.8736 14.3955C17.2004 11.3646 20.2662 8.96121 23.7245 7.4569C27.1829 5.95259 30.896 5.40722 34.4447 5.88238L34.4421 5.88288Z" fill="white"/>
    </g>
  </g>
  <defs>
    <linearGradient id="paint0_linear_86_177" x1="36.8354" y1="48.2697" x2="23.8727" y2="18.6922" gradientUnits="userSpaceOnUse">
      <stop stop-color="#20C997"/>
      <stop offset="1" stop-color="#396074"/>
    </linearGradient>
    <linearGradient id="paint1_linear_86_177" x1="20.0198" y1="12.2194" x2="34.8788" y2="36.2083" gradientUnits="userSpaceOnUse">
      <stop stop-color="#FFC107"/>
      <stop offset="1" stop-color="#FC0048"/>
    </linearGradient>
  </defs>
</svg>
